%YAML 1.1
%TAG !u! tag:unity3d.com,2011:
--- !u!114 &11400000
MonoBehaviour:
  m_ObjectHideFlags: 0
  m_CorrespondingSourceObject: {fileID: 0}
  m_PrefabInstance: {fileID: 0}
  m_PrefabAsset: {fileID: 0}
  m_GameObject: {fileID: 0}
  m_Enabled: 1
  m_EditorHideFlags: 0
  m_Script: {fileID: 11500000, guid: af7181f404f1447c0a7a17b3070b952b, type: 3}
  m_Name: Blood Vessel SpriteShapeProfile
  m_EditorClassIdentifier: 
  m_Angles:
  - m_Start: -180
    m_End: 180
    m_Order: 4
    m_Sprites:
    - {fileID: 21300000, guid: 59b5891d4168daf4283efb48ff2e6e6a, type: 3}
    - {fileID: 21300000, guid: 7f2538a52a46fc040b6150ccc6379186, type: 3}
    - {fileID: 21300000, guid: 97c963412acb45a4a91012da48fac346, type: 3}
    - {fileID: 21300000, guid: 0f7e74655c2a8b946913b37554e09c70, type: 3}
    - {fileID: 21300000, guid: 80c46056b5d8bab488942eef8ae4eda0, type: 3}
    - {fileID: 21300000, guid: ec1858c3c9731cf4cac85d03414557f8, type: 3}
    - {fileID: 21300000, guid: db46656a0cf27d64fb2d24d7aa08135c, type: 3}
    - {fileID: 21300000, guid: d71004f0ef5763742a52353124693d6d, type: 3}
  m_FillTexture: {fileID: 0}
  m_CornerSprites:
  - m_CornerType: 0
    m_Sprites:
    - {fileID: 0}
  - m_CornerType: 1
    m_Sprites:
    - {fileID: 0}
  - m_CornerType: 2
    m_Sprites:
    - {fileID: 0}
  - m_CornerType: 3
    m_Sprites:
    - {fileID: 0}
  - m_CornerType: 4
    m_Sprites:
    - {fileID: 0}
  - m_CornerType: 5
    m_Sprites:
    - {fileID: 0}
  - m_CornerType: 6
    m_Sprites:
    - {fileID: 0}
  - m_CornerType: 7
    m_Sprites:
    - {fileID: 0}
  m_FillOffset: 0
  m_UseSpriteBorders: 1
